%YAML 1.1
%TAG !u! tag:unity3d.com,2011:
--- !u!1001 &2682404482293947311
PrefabInstance:
  m_ObjectHideFlags: 0
  serializedVersion: 2
  m_Modification:
    serializedVersion: 2
    m_TransformParent: {fileID: 0}
    m_Modifications:
    - target: {fileID: 3965540653103055451, guid: f061855df4a891472a4c26da3d530a4d, type: 3}
      propertyPath: m_Name
      value: EnemyVariant3
      objectReference: {fileID: 0}
    - target: {fileID: 3965540653103055453, guid: f061855df4a891472a4c26da3d530a4d, type: 3}
      propertyPath: m_Radius
      value: 0.3
      objectReference: {fileID: 0}
    - target: {fileID: 3965540653103055454, guid: f061855df4a891472a4c26da3d530a4d, type: 3}
      propertyPath: m_Sprite
      value: 
      objectReference: {fileID: 21300000, guid: ec6551a756f18ac4fa28dba6c794ca95, type: 3}
    - target: {fileID: 3965540653103055455, guid: f061855df4a891472a4c26da3d530a4d, type: 3}
      propertyPath: m_RootOrder
      value: 0
      objectReference: {fileID: 0}
    - target: {fileID: 3965540653103055455, guid: f061855df4a891472a4c26da3d530a4d, type: 3}
      propertyPath: m_LocalPosition.x
      value: 0
      objectReference: {fileID: 0}
    - target: {fileID: 3965540653103055455, guid: f061855df4a891472a4c26da3d530a4d, type: 3}
      propertyPath: m_LocalPosition.y
      value: 0
      objectReference: {fileID: 0}
    - target: {fileID: 3965540653103055455, guid: f061855df4a891472a4c26da3d530a4d, type: 3}
      propertyPath: m_LocalPosition.z
      value: 0
      objectReference: {fileID: 0}
    - target: {fileID: 3965540653103055455, guid: f061855df4a891472a4c26da3d530a4d, type: 3}
      propertyPath: m_LocalRotation.w
      value: 1
      objectReference: {fileID: 0}
    - target: {fileID: 3965540653103055455, guid: f061855df4a891472a4c26da3d530a4d, type: 3}
      propertyPath: m_LocalRotation.x
      value: 0
      objectReference: {fileID: 0}
    - target: {fileID: 3965540653103055455, guid: f061855df4a891472a4c26da3d530a4d, type: 3}
      propertyPath: m_LocalRotation.y
      value: 0
      objectReference: {fileID: 0}
    - target: {fileID: 3965540653103055455, guid: f061855df4a891472a4c26da3d530a4d, type: 3}
      propertyPath: m_LocalRotation.z
      value: 0
      objectReference: {fileID: 0}
    - target: {fileID: 3965540653103055455, guid: f061855df4a891472a4c26da3d530a4d, type: 3}
      propertyPath: m_LocalEulerAnglesHint.x
      value: 0
      objectReference: {fileID: 0}
    - target: {fileID: 3965540653103055455, guid: f061855df4a891472a4c26da3d530a4d, type: 3}
      propertyPath: m_LocalEulerAnglesHint.y
      value: 0
      objectReference: {fileID: 0}
    - target: {fileID: 3965540653103055455, guid: f061855df4a891472a4c26da3d530a4d, type: 3}
      propertyPath: m_LocalEulerAnglesHint.z
      value: 0
      objectReference: {fileID: 0}
    m_RemovedComponents: []
    m_AddedGameObjects: []
  m_SourcePrefab: {fileID: 100100000, guid: f061855df4a891472a4c26da3d530a4d, type: 3}
--- !u!1 &1311038546275981812 stripped
GameObject:
  m_CorrespondingSourceObject: {fileID: 3965540653103055451, guid: f061855df4a891472a4c26da3d530a4d, type: 3}
  m_PrefabInstance: {fileID: 2682404482293947311}
  m_PrefabAsset: {fileID: 0}
--- !u!70 &4129026778863250100
CapsuleCollider2D:
  m_ObjectHideFlags: 0
  m_CorrespondingSourceObject: {fileID: 0}
  m_PrefabInstance: {fileID: 0}
  m_PrefabAsset: {fileID: 0}
  m_GameObject: {fileID: 1311038546275981812}
  m_Enabled: 1
  m_Density: 1
  m_Material: {fileID: 0}
  m_IsTrigger: 1
  m_UsedByEffector: 0
  m_UsedByComposite: 0
  m_Offset: {x: 0, y: -0.07}
  m_Size: {x: 0.4, y: 0.7}
  m_Direction: 0
--- !u!212 &6133663185643936987
SpriteRenderer:
  m_ObjectHideFlags: 0
  m_CorrespondingSourceObject: {fileID: 0}
  m_PrefabInstance: {fileID: 0}
  m_PrefabAsset: {fileID: 0}
  m_GameObject: {fileID: 1311038546275981812}
  m_Enabled: 1
  m_CastShadows: 0
  m_ReceiveShadows: 0
  m_DynamicOccludee: 1
  m_StaticShadowCaster: 0
  m_MotionVectors: 1
  m_LightProbeUsage: 1
  m_ReflectionProbeUsage: 1
  m_RayTracingMode: 0
  m_RayTraceProcedural: 0
  m_RenderingLayerMask: 1
  m_RendererPriority: 0
  m_Materials:
  - {fileID: 2100000, guid: a97c105638bdf8b4a8650670310a4cd3, type: 2}
  m_StaticBatchInfo:
    firstSubMesh: 0
    subMeshCount: 0
  m_StaticBatchRoot: {fileID: 0}
  m_ProbeAnchor: {fileID: 0}
  m_LightProbeVolumeOverride: {fileID: 0}
  m_ScaleInLightmap: 1
  m_ReceiveGI: 1
  m_PreserveUVs: 0
  m_IgnoreNormalsForChartDetection: 0
  m_ImportantGI: 0
  m_StitchLightmapSeams: 1
  m_SelectedEditorRenderState: 0
  m_MinimumChartSize: 4
  m_AutoUVMaxDistance: 0.5
  m_AutoUVMaxAngle: 89
  m_LightmapParameters: {fileID: 0}
  m_SortingLayerID: 0
  m_SortingLayer: 0
  m_SortingOrder: 0
  m_Sprite: {fileID: 21300000, guid: 570d78a5d0f732a4ab9af26a76b4e9d5, type: 3}
  m_Color: {r: 1, g: 1, b: 1, a: 1}
  m_FlipX: 0
  m_FlipY: 0
  m_DrawMode: 0
  m_Size: {x: 0.51, y: 0.75}
  m_AdaptiveModeThreshold: 0.5
  m_SpriteTileMode: 0
  m_WasSpriteAssigned: 1
  m_MaskInteraction: 0
  m_SpriteSortPoint: 0
