%YAML 1.1
%TAG !u! tag:unity3d.com,2011:
--- !u!687078895 &4343727234628468602
SpriteAtlas:
  m_ObjectHideFlags: 0
  m_CorrespondingSourceObject: {fileID: 0}
  m_PrefabInstance: {fileID: 0}
  m_PrefabAsset: {fileID: 0}
  m_Name: Dungeon Atlas
  m_EditorData:
    serializedVersion: 2
    textureSettings:
      serializedVersion: 2
      anisoLevel: 1
      compressionQuality: 50
      maxTextureSize: 2048
      textureCompression: 0
      filterMode: 0
      generateMipMaps: 0
      readable: 0
      crunchedCompression: 0
      sRGB: 1
    platformSettings:
    - serializedVersion: 3
      m_BuildTarget: DefaultTexturePlatform
      m_MaxTextureSize: 2048
      m_ResizeAlgorithm: 0
      m_TextureFormat: -1
      m_TextureCompression: 0
      m_CompressionQuality: 50
      m_CrunchedCompression: 0
      m_AllowsAlphaSplitting: 0
      m_Overridden: 0
      m_AndroidETC2FallbackOverride: 0
      m_ForceMaximumCompressionQuality_BC6H_BC7: 0
    packingSettings:
      serializedVersion: 2
      padding: 4
      blockOffset: 1
      allowAlphaSplitting: 0
      enableRotation: 1
      enableTightPacking: 1
      enableAlphaDilation: 0
    secondaryTextureSettings: {}
    variantMultiplier: 1
    packables:
    - {fileID: 2800000, guid: ddbd297f881b704448a52d205078ad04, type: 3}
    bindAsDefault: 1
    isAtlasV2: 0
    cachedData: {fileID: 0}
  m_MasterAtlas: {fileID: 0}
  m_PackedSprites:
  - {fileID: 1236855189, guid: ddbd297f881b704448a52d205078ad04, type: 3}
  - {fileID: 1283168670, guid: ddbd297f881b704448a52d205078ad04, type: 3}
  - {fileID: 1115281889, guid: ddbd297f881b704448a52d205078ad04, type: 3}
  - {fileID: 1602528565, guid: ddbd297f881b704448a52d205078ad04, type: 3}
  - {fileID: 1788368923, guid: ddbd297f881b704448a52d205078ad04, type: 3}
  - {fileID: -828990465, guid: ddbd297f881b704448a52d205078ad04, type: 3}
  - {fileID: 870231438, guid: ddbd297f881b704448a52d205078ad04, type: 3}
  - {fileID: 1715875941, guid: ddbd297f881b704448a52d205078ad04, type: 3}
  - {fileID: -1057928675, guid: ddbd297f881b704448a52d205078ad04, type: 3}
  - {fileID: 2074896238, guid: ddbd297f881b704448a52d205078ad04, type: 3}
  - {fileID: -1310631795, guid: ddbd297f881b704448a52d205078ad04, type: 3}
  - {fileID: -276567349, guid: ddbd297f881b704448a52d205078ad04, type: 3}
  - {fileID: -1494346548, guid: ddbd297f881b704448a52d205078ad04, type: 3}
  - {fileID: -488874335, guid: ddbd297f881b704448a52d205078ad04, type: 3}
  - {fileID: 582062242, guid: ddbd297f881b704448a52d205078ad04, type: 3}
  - {fileID: 2014188576, guid: ddbd297f881b704448a52d205078ad04, type: 3}
  - {fileID: 885450834, guid: ddbd297f881b704448a52d205078ad04, type: 3}
  - {fileID: -1227700011, guid: ddbd297f881b704448a52d205078ad04, type: 3}
  - {fileID: -722385958, guid: ddbd297f881b704448a52d205078ad04, type: 3}
  - {fileID: 714222244, guid: ddbd297f881b704448a52d205078ad04, type: 3}
  - {fileID: 77794207, guid: ddbd297f881b704448a52d205078ad04, type: 3}
  - {fileID: 145585812, guid: ddbd297f881b704448a52d205078ad04, type: 3}
  - {fileID: -1579599224, guid: ddbd297f881b704448a52d205078ad04, type: 3}
  - {fileID: -170669492, guid: ddbd297f881b704448a52d205078ad04, type: 3}
  - {fileID: 2123265701, guid: ddbd297f881b704448a52d205078ad04, type: 3}
  - {fileID: -1270556727, guid: ddbd297f881b704448a52d205078ad04, type: 3}
  - {fileID: 1047474958, guid: ddbd297f881b704448a52d205078ad04, type: 3}
  - {fileID: -889440058, guid: ddbd297f881b704448a52d205078ad04, type: 3}
  - {fileID: -1212248600, guid: ddbd297f881b704448a52d205078ad04, type: 3}
  - {fileID: 1766604148, guid: ddbd297f881b704448a52d205078ad04, type: 3}
  - {fileID: -1922942595, guid: ddbd297f881b704448a52d205078ad04, type: 3}
  - {fileID: -74138687, guid: ddbd297f881b704448a52d205078ad04, type: 3}
  - {fileID: -1839879714, guid: ddbd297f881b704448a52d205078ad04, type: 3}
  - {fileID: 417405717, guid: ddbd297f881b704448a52d205078ad04, type: 3}
  - {fileID: -1524455055, guid: ddbd297f881b704448a52d205078ad04, type: 3}
  - {fileID: 1958582318, guid: ddbd297f881b704448a52d205078ad04, type: 3}
  - {fileID: -1138438640, guid: ddbd297f881b704448a52d205078ad04, type: 3}
  - {fileID: 1453462100, guid: ddbd297f881b704448a52d205078ad04, type: 3}
  - {fileID: -207202789, guid: ddbd297f881b704448a52d205078ad04, type: 3}
  - {fileID: -16882296, guid: ddbd297f881b704448a52d205078ad04, type: 3}
  - {fileID: 770754607, guid: ddbd297f881b704448a52d205078ad04, type: 3}
  - {fileID: -1088720020, guid: ddbd297f881b704448a52d205078ad04, type: 3}
  - {fileID: 164928075, guid: ddbd297f881b704448a52d205078ad04, type: 3}
  - {fileID: 1291868710, guid: ddbd297f881b704448a52d205078ad04, type: 3}
  - {fileID: 4518809, guid: ddbd297f881b704448a52d205078ad04, type: 3}
  - {fileID: 972270473, guid: ddbd297f881b704448a52d205078ad04, type: 3}
  - {fileID: -1250281461, guid: ddbd297f881b704448a52d205078ad04, type: 3}
  - {fileID: 992423475, guid: ddbd297f881b704448a52d205078ad04, type: 3}
  - {fileID: -2105149137, guid: ddbd297f881b704448a52d205078ad04, type: 3}
  - {fileID: -145803788, guid: ddbd297f881b704448a52d205078ad04, type: 3}
  - {fileID: -1812168462, guid: ddbd297f881b704448a52d205078ad04, type: 3}
  - {fileID: 1374299395, guid: ddbd297f881b704448a52d205078ad04, type: 3}
  - {fileID: -747684835, guid: ddbd297f881b704448a52d205078ad04, type: 3}
  - {fileID: 1549779207, guid: ddbd297f881b704448a52d205078ad04, type: 3}
  - {fileID: -2097024656, guid: ddbd297f881b704448a52d205078ad04, type: 3}
  - {fileID: 659589026, guid: ddbd297f881b704448a52d205078ad04, type: 3}
  - {fileID: -2126753128, guid: ddbd297f881b704448a52d205078ad04, type: 3}
  - {fileID: -1054175532, guid: ddbd297f881b704448a52d205078ad04, type: 3}
  - {fileID: 1732105146, guid: ddbd297f881b704448a52d205078ad04, type: 3}
  - {fileID: 1629213694, guid: ddbd297f881b704448a52d205078ad04, type: 3}
  - {fileID: 148956027, guid: ddbd297f881b704448a52d205078ad04, type: 3}
  - {fileID: -652424806, guid: ddbd297f881b704448a52d205078ad04, type: 3}
  - {fileID: 1964198615, guid: ddbd297f881b704448a52d205078ad04, type: 3}
  - {fileID: 1111000846, guid: ddbd297f881b704448a52d205078ad04, type: 3}
  - {fileID: -743448919, guid: ddbd297f881b704448a52d205078ad04, type: 3}
  - {fileID: 1376840072, guid: ddbd297f881b704448a52d205078ad04, type: 3}
  - {fileID: -187000325, guid: ddbd297f881b704448a52d205078ad04, type: 3}
  - {fileID: -1425353434, guid: ddbd297f881b704448a52d205078ad04, type: 3}
  - {fileID: 1154109038, guid: ddbd297f881b704448a52d205078ad04, type: 3}
  - {fileID: 1114566395, guid: ddbd297f881b704448a52d205078ad04, type: 3}
  - {fileID: -1362082126, guid: ddbd297f881b704448a52d205078ad04, type: 3}
  - {fileID: -1836115005, guid: ddbd297f881b704448a52d205078ad04, type: 3}
  - {fileID: -782513565, guid: ddbd297f881b704448a52d205078ad04, type: 3}
  - {fileID: 62825906, guid: ddbd297f881b704448a52d205078ad04, type: 3}
  - {fileID: -1263673945, guid: ddbd297f881b704448a52d205078ad04, type: 3}
  - {fileID: -1466334028, guid: ddbd297f881b704448a52d205078ad04, type: 3}
  - {fileID: 1759988982, guid: ddbd297f881b704448a52d205078ad04, type: 3}
  - {fileID: 1268288835, guid: ddbd297f881b704448a52d205078ad04, type: 3}
  - {fileID: 1795597626, guid: ddbd297f881b704448a52d205078ad04, type: 3}
  - {fileID: 2058343398, guid: ddbd297f881b704448a52d205078ad04, type: 3}
  - {fileID: -207495414, guid: ddbd297f881b704448a52d205078ad04, type: 3}
  - {fileID: 194903288, guid: ddbd297f881b704448a52d205078ad04, type: 3}
  - {fileID: 1965013935, guid: ddbd297f881b704448a52d205078ad04, type: 3}
  - {fileID: -600115072, guid: ddbd297f881b704448a52d205078ad04, type: 3}
  - {fileID: 317932445, guid: ddbd297f881b704448a52d205078ad04, type: 3}
  - {fileID: -617386499, guid: ddbd297f881b704448a52d205078ad04, type: 3}
  - {fileID: 703961322, guid: ddbd297f881b704448a52d205078ad04, type: 3}
  - {fileID: 1105209229, guid: ddbd297f881b704448a52d205078ad04, type: 3}
  - {fileID: -207158964, guid: ddbd297f881b704448a52d205078ad04, type: 3}
  - {fileID: -354121526, guid: ddbd297f881b704448a52d205078ad04, type: 3}
  - {fileID: 1319348414, guid: ddbd297f881b704448a52d205078ad04, type: 3}
  - {fileID: -1221423184, guid: ddbd297f881b704448a52d205078ad04, type: 3}
  - {fileID: 1033141852, guid: ddbd297f881b704448a52d205078ad04, type: 3}
  - {fileID: -1888073485, guid: ddbd297f881b704448a52d205078ad04, type: 3}
  - {fileID: -596268401, guid: ddbd297f881b704448a52d205078ad04, type: 3}
  - {fileID: 143534628, guid: ddbd297f881b704448a52d205078ad04, type: 3}
  - {fileID: -67517171, guid: ddbd297f881b704448a52d205078ad04, type: 3}
  - {fileID: -7438225, guid: ddbd297f881b704448a52d205078ad04, type: 3}
  - {fileID: -750462202, guid: ddbd297f881b704448a52d205078ad04, type: 3}
  - {fileID: 1039370386, guid: ddbd297f881b704448a52d205078ad04, type: 3}
  - {fileID: -571813914, guid: ddbd297f881b704448a52d205078ad04, type: 3}
  - {fileID: 1410533448, guid: ddbd297f881b704448a52d205078ad04, type: 3}
  - {fileID: -1406835757, guid: ddbd297f881b704448a52d205078ad04, type: 3}
  - {fileID: 26399086, guid: ddbd297f881b704448a52d205078ad04, type: 3}
  - {fileID: -2135877556, guid: ddbd297f881b704448a52d205078ad04, type: 3}
  - {fileID: 1968324144, guid: ddbd297f881b704448a52d205078ad04, type: 3}
  - {fileID: -541544551, guid: ddbd297f881b704448a52d205078ad04, type: 3}
  - {fileID: 68926905, guid: ddbd297f881b704448a52d205078ad04, type: 3}
  - {fileID: -1301237152, guid: ddbd297f881b704448a52d205078ad04, type: 3}
  - {fileID: -1931424493, guid: ddbd297f881b704448a52d205078ad04, type: 3}
  - {fileID: -745979113, guid: ddbd297f881b704448a52d205078ad04, type: 3}
  - {fileID: -1184726145, guid: ddbd297f881b704448a52d205078ad04, type: 3}
  - {fileID: -826157576, guid: ddbd297f881b704448a52d205078ad04, type: 3}
  - {fileID: 1718058495, guid: ddbd297f881b704448a52d205078ad04, type: 3}
  - {fileID: -756638887, guid: ddbd297f881b704448a52d205078ad04, type: 3}
  - {fileID: 1929471360, guid: ddbd297f881b704448a52d205078ad04, type: 3}
  - {fileID: 1522263821, guid: ddbd297f881b704448a52d205078ad04, type: 3}
  - {fileID: -1185148099, guid: ddbd297f881b704448a52d205078ad04, type: 3}
  - {fileID: -120764035, guid: ddbd297f881b704448a52d205078ad04, type: 3}
  - {fileID: -792988035, guid: ddbd297f881b704448a52d205078ad04, type: 3}
  - {fileID: 1773437297, guid: ddbd297f881b704448a52d205078ad04, type: 3}
  - {fileID: 1272914307, guid: ddbd297f881b704448a52d205078ad04, type: 3}
  - {fileID: -1265194256, guid: ddbd297f881b704448a52d205078ad04, type: 3}
  - {fileID: 453014935, guid: ddbd297f881b704448a52d205078ad04, type: 3}
  - {fileID: 1453519755, guid: ddbd297f881b704448a52d205078ad04, type: 3}
  - {fileID: 2143227551, guid: ddbd297f881b704448a52d205078ad04, type: 3}
  - {fileID: -466785879, guid: ddbd297f881b704448a52d205078ad04, type: 3}
  - {fileID: -448410838, guid: ddbd297f881b704448a52d205078ad04, type: 3}
  - {fileID: -1851883039, guid: ddbd297f881b704448a52d205078ad04, type: 3}
  - {fileID: 1402342820, guid: ddbd297f881b704448a52d205078ad04, type: 3}
  - {fileID: -565871165, guid: ddbd297f881b704448a52d205078ad04, type: 3}
  - {fileID: -942072663, guid: ddbd297f881b704448a52d205078ad04, type: 3}
  - {fileID: -1689613458, guid: ddbd297f881b704448a52d205078ad04, type: 3}
  - {fileID: -1961057445, guid: ddbd297f881b704448a52d205078ad04, type: 3}
  - {fileID: -1379159576, guid: ddbd297f881b704448a52d205078ad04, type: 3}
  - {fileID: 1863387464, guid: ddbd297f881b704448a52d205078ad04, type: 3}
  - {fileID: -1240412814, guid: ddbd297f881b704448a52d205078ad04, type: 3}
  - {fileID: 1036301850, guid: ddbd297f881b704448a52d205078ad04, type: 3}
  - {fileID: -942904662, guid: ddbd297f881b704448a52d205078ad04, type: 3}
  - {fileID: -1670624371, guid: ddbd297f881b704448a52d205078ad04, type: 3}
  - {fileID: 1970772602, guid: ddbd297f881b704448a52d205078ad04, type: 3}
  - {fileID: -1324900762, guid: ddbd297f881b704448a52d205078ad04, type: 3}
  - {fileID: 961168736, guid: ddbd297f881b704448a52d205078ad04, type: 3}
  - {fileID: 1907538310, guid: ddbd297f881b704448a52d205078ad04, type: 3}
  - {fileID: -1956023888, guid: ddbd297f881b704448a52d205078ad04, type: 3}
  - {fileID: 761571183, guid: ddbd297f881b704448a52d205078ad04, type: 3}
  - {fileID: 308722700, guid: ddbd297f881b704448a52d205078ad04, type: 3}
  - {fileID: -1590665546, guid: ddbd297f881b704448a52d205078ad04, type: 3}
  - {fileID: -460390455, guid: ddbd297f881b704448a52d205078ad04, type: 3}
  - {fileID: 1861721438, guid: ddbd297f881b704448a52d205078ad04, type: 3}
  - {fileID: 70933323, guid: ddbd297f881b704448a52d205078ad04, type: 3}
  - {fileID: -643910610, guid: ddbd297f881b704448a52d205078ad04, type: 3}
  - {fileID: -1676713471, guid: ddbd297f881b704448a52d205078ad04, type: 3}
  - {fileID: 1182202186, guid: ddbd297f881b704448a52d205078ad04, type: 3}
  - {fileID: 2097158454, guid: ddbd297f881b704448a52d205078ad04, type: 3}
  - {fileID: -318690268, guid: ddbd297f881b704448a52d205078ad04, type: 3}
  - {fileID: 111808743, guid: ddbd297f881b704448a52d205078ad04, type: 3}
  - {fileID: 1632195976, guid: ddbd297f881b704448a52d205078ad04, type: 3}
  - {fileID: -347185341, guid: ddbd297f881b704448a52d205078ad04, type: 3}
  - {fileID: -1409170802, guid: ddbd297f881b704448a52d205078ad04, type: 3}
  - {fileID: -959234563, guid: ddbd297f881b704448a52d205078ad04, type: 3}
  - {fileID: -822768502, guid: ddbd297f881b704448a52d205078ad04, type: 3}
  - {fileID: -450082119, guid: ddbd297f881b704448a52d205078ad04, type: 3}
  - {fileID: 388142213, guid: ddbd297f881b704448a52d205078ad04, type: 3}
  - {fileID: -1708008565, guid: ddbd297f881b704448a52d205078ad04, type: 3}
  - {fileID: 531830625, guid: ddbd297f881b704448a52d205078ad04, type: 3}
  - {fileID: -1712821452, guid: ddbd297f881b704448a52d205078ad04, type: 3}
  - {fileID: -132429896, guid: ddbd297f881b704448a52d205078ad04, type: 3}
  - {fileID: 1990343138, guid: ddbd297f881b704448a52d205078ad04, type: 3}
  - {fileID: 1840512724, guid: ddbd297f881b704448a52d205078ad04, type: 3}
  - {fileID: 812902247, guid: ddbd297f881b704448a52d205078ad04, type: 3}
  - {fileID: 1646696225, guid: ddbd297f881b704448a52d205078ad04, type: 3}
  - {fileID: 725281048, guid: ddbd297f881b704448a52d205078ad04, type: 3}
  - {fileID: -348916609, guid: ddbd297f881b704448a52d205078ad04, type: 3}
  - {fileID: -1710642906, guid: ddbd297f881b704448a52d205078ad04, type: 3}
  - {fileID: -1117793036, guid: ddbd297f881b704448a52d205078ad04, type: 3}
  - {fileID: -1144197383, guid: ddbd297f881b704448a52d205078ad04, type: 3}
  - {fileID: -1713434817, guid: ddbd297f881b704448a52d205078ad04, type: 3}
  - {fileID: -802317985, guid: ddbd297f881b704448a52d205078ad04, type: 3}
  - {fileID: -1512139827, guid: ddbd297f881b704448a52d205078ad04, type: 3}
  - {fileID: -1102002585, guid: ddbd297f881b704448a52d205078ad04, type: 3}
  - {fileID: 1186807034, guid: ddbd297f881b704448a52d205078ad04, type: 3}
  - {fileID: 1412710773, guid: ddbd297f881b704448a52d205078ad04, type: 3}
  - {fileID: -1269606280, guid: ddbd297f881b704448a52d205078ad04, type: 3}
  - {fileID: -1247650829, guid: ddbd297f881b704448a52d205078ad04, type: 3}
  - {fileID: -928892576, guid: ddbd297f881b704448a52d205078ad04, type: 3}
  - {fileID: 1571301733, guid: ddbd297f881b704448a52d205078ad04, type: 3}
  - {fileID: -1603204692, guid: ddbd297f881b704448a52d205078ad04, type: 3}
  - {fileID: 1339595429, guid: ddbd297f881b704448a52d205078ad04, type: 3}
  - {fileID: 127064250, guid: ddbd297f881b704448a52d205078ad04, type: 3}
  - {fileID: 1493668973, guid: ddbd297f881b704448a52d205078ad04, type: 3}
  - {fileID: 1534231728, guid: ddbd297f881b704448a52d205078ad04, type: 3}
  - {fileID: 1026343179, guid: ddbd297f881b704448a52d205078ad04, type: 3}
  - {fileID: -556804292, guid: ddbd297f881b704448a52d205078ad04, type: 3}
  - {fileID: 1503593838, guid: ddbd297f881b704448a52d205078ad04, type: 3}
  - {fileID: 386244946, guid: ddbd297f881b704448a52d205078ad04, type: 3}
  - {fileID: -2089101345, guid: ddbd297f881b704448a52d205078ad04, type: 3}
  - {fileID: 606683573, guid: ddbd297f881b704448a52d205078ad04, type: 3}
  - {fileID: 1985511866, guid: ddbd297f881b704448a52d205078ad04, type: 3}
  - {fileID: -1044605650, guid: ddbd297f881b704448a52d205078ad04, type: 3}
  - {fileID: 2078429553, guid: ddbd297f881b704448a52d205078ad04, type: 3}
  - {fileID: 1658234862, guid: ddbd297f881b704448a52d205078ad04, type: 3}
  - {fileID: -1202436642, guid: ddbd297f881b704448a52d205078ad04, type: 3}
  - {fileID: -568745883, guid: ddbd297f881b704448a52d205078ad04, type: 3}
  - {fileID: 743689298, guid: ddbd297f881b704448a52d205078ad04, type: 3}
  - {fileID: -38621626, guid: ddbd297f881b704448a52d205078ad04, type: 3}
  - {fileID: 1273547344, guid: ddbd297f881b704448a52d205078ad04, type: 3}
  - {fileID: -759434065, guid: ddbd297f881b704448a52d205078ad04, type: 3}
  - {fileID: -1920093899, guid: ddbd297f881b704448a52d205078ad04, type: 3}
  - {fileID: 2066950278, guid: ddbd297f881b704448a52d205078ad04, type: 3}
  - {fileID: -361474314, guid: ddbd297f881b704448a52d205078ad04, type: 3}
  - {fileID: -208842334, guid: ddbd297f881b704448a52d205078ad04, type: 3}
  - {fileID: 1313665704, guid: ddbd297f881b704448a52d205078ad04, type: 3}
  - {fileID: 1385148198, guid: ddbd297f881b704448a52d205078ad04, type: 3}
  - {fileID: 1808388358, guid: ddbd297f881b704448a52d205078ad04, type: 3}
  - {fileID: -1869137705, guid: ddbd297f881b704448a52d205078ad04, type: 3}
  - {fileID: -935496512, guid: ddbd297f881b704448a52d205078ad04, type: 3}
  - {fileID: -87964707, guid: ddbd297f881b704448a52d205078ad04, type: 3}
  - {fileID: -1185887963, guid: ddbd297f881b704448a52d205078ad04, type: 3}
  - {fileID: 1714877257, guid: ddbd297f881b704448a52d205078ad04, type: 3}
  - {fileID: -1173552610, guid: ddbd297f881b704448a52d205078ad04, type: 3}
  - {fileID: -2013069156, guid: ddbd297f881b704448a52d205078ad04, type: 3}
  - {fileID: 247684947, guid: ddbd297f881b704448a52d205078ad04, type: 3}
  - {fileID: 230410780, guid: ddbd297f881b704448a52d205078ad04, type: 3}
  - {fileID: 695700843, guid: ddbd297f881b704448a52d205078ad04, type: 3}
  - {fileID: -1601385319, guid: ddbd297f881b704448a52d205078ad04, type: 3}
  - {fileID: -1395445371, guid: ddbd297f881b704448a52d205078ad04, type: 3}
  - {fileID: -175692794, guid: ddbd297f881b704448a52d205078ad04, type: 3}
  - {fileID: 1059589369, guid: ddbd297f881b704448a52d205078ad04, type: 3}
  - {fileID: -1923660272, guid: ddbd297f881b704448a52d205078ad04, type: 3}
  - {fileID: 17205407, guid: ddbd297f881b704448a52d205078ad04, type: 3}
  - {fileID: 392322075, guid: ddbd297f881b704448a52d205078ad04, type: 3}
  - {fileID: -591936161, guid: ddbd297f881b704448a52d205078ad04, type: 3}
  - {fileID: 1520104701, guid: ddbd297f881b704448a52d205078ad04, type: 3}
  - {fileID: -654890234, guid: ddbd297f881b704448a52d205078ad04, type: 3}
  - {fileID: 2101892637, guid: ddbd297f881b704448a52d205078ad04, type: 3}
  - {fileID: 1027435525, guid: ddbd297f881b704448a52d205078ad04, type: 3}
  - {fileID: 743431435, guid: ddbd297f881b704448a52d205078ad04, type: 3}
  - {fileID: 385482835, guid: ddbd297f881b704448a52d205078ad04, type: 3}
  - {fileID: 688962359, guid: ddbd297f881b704448a52d205078ad04, type: 3}
  - {fileID: 1124442634, guid: ddbd297f881b704448a52d205078ad04, type: 3}
  - {fileID: 396464820, guid: ddbd297f881b704448a52d205078ad04, type: 3}
  - {fileID: -921050818, guid: ddbd297f881b704448a52d205078ad04, type: 3}
  - {fileID: -1860648400, guid: ddbd297f881b704448a52d205078ad04, type: 3}
  - {fileID: 2126664053, guid: ddbd297f881b704448a52d205078ad04, type: 3}
  - {fileID: 1159599270, guid: ddbd297f881b704448a52d205078ad04, type: 3}
  - {fileID: 40579472, guid: ddbd297f881b704448a52d205078ad04, type: 3}
  - {fileID: -308383374, guid: ddbd297f881b704448a52d205078ad04, type: 3}
  - {fileID: 1485270050, guid: ddbd297f881b704448a52d205078ad04, type: 3}
  - {fileID: 557720521, guid: ddbd297f881b704448a52d205078ad04, type: 3}
  - {fileID: 1966622286, guid: ddbd297f881b704448a52d205078ad04, type: 3}
  - {fileID: -1420479380, guid: ddbd297f881b704448a52d205078ad04, type: 3}
  - {fileID: -745460839, guid: ddbd297f881b704448a52d205078ad04, type: 3}
  - {fileID: -51141812, guid: ddbd297f881b704448a52d205078ad04, type: 3}
  - {fileID: 75285254, guid: ddbd297f881b704448a52d205078ad04, type: 3}
  - {fileID: -1696677306, guid: ddbd297f881b704448a52d205078ad04, type: 3}
  - {fileID: 1039212480, guid: ddbd297f881b704448a52d205078ad04, type: 3}
  - {fileID: -625315317, guid: ddbd297f881b704448a52d205078ad04, type: 3}
  - {fileID: 194769119, guid: ddbd297f881b704448a52d205078ad04, type: 3}
  - {fileID: -1728046112, guid: ddbd297f881b704448a52d205078ad04, type: 3}
  - {fileID: -558566015, guid: ddbd297f881b704448a52d205078ad04, type: 3}
  - {fileID: 1798728375, guid: ddbd297f881b704448a52d205078ad04, type: 3}
  - {fileID: 996792423, guid: ddbd297f881b704448a52d205078ad04, type: 3}
  - {fileID: 43610926, guid: ddbd297f881b704448a52d205078ad04, type: 3}
  - {fileID: -1259736054, guid: ddbd297f881b704448a52d205078ad04, type: 3}
  - {fileID: 2112340255, guid: ddbd297f881b704448a52d205078ad04, type: 3}
  - {fileID: -793207305, guid: ddbd297f881b704448a52d205078ad04, type: 3}
  - {fileID: 172621315, guid: ddbd297f881b704448a52d205078ad04, type: 3}
  - {fileID: -1902166938, guid: ddbd297f881b704448a52d205078ad04, type: 3}
  - {fileID: 1249387788, guid: ddbd297f881b704448a52d205078ad04, type: 3}
  - {fileID: -1886237902, guid: ddbd297f881b704448a52d205078ad04, type: 3}
  - {fileID: 805877331, guid: ddbd297f881b704448a52d205078ad04, type: 3}
  - {fileID: 1280193801, guid: ddbd297f881b704448a52d205078ad04, type: 3}
  - {fileID: 250655994, guid: ddbd297f881b704448a52d205078ad04, type: 3}
  - {fileID: 327083434, guid: ddbd297f881b704448a52d205078ad04, type: 3}
  - {fileID: -441103939, guid: ddbd297f881b704448a52d205078ad04, type: 3}
  - {fileID: -57333972, guid: ddbd297f881b704448a52d205078ad04, type: 3}
  - {fileID: 1289511220, guid: ddbd297f881b704448a52d205078ad04, type: 3}
  - {fileID: 176022747, guid: ddbd297f881b704448a52d205078ad04, type: 3}
  - {fileID: 199211085, guid: ddbd297f881b704448a52d205078ad04, type: 3}
  - {fileID: 727795562, guid: ddbd297f881b704448a52d205078ad04, type: 3}
  - {fileID: 1398243076, guid: ddbd297f881b704448a52d205078ad04, type: 3}
  - {fileID: 1561643799, guid: ddbd297f881b704448a52d205078ad04, type: 3}
  - {fileID: 869332132, guid: ddbd297f881b704448a52d205078ad04, type: 3}
  - {fileID: -75088295, guid: ddbd297f881b704448a52d205078ad04, type: 3}
  - {fileID: -470912081, guid: ddbd297f881b704448a52d205078ad04, type: 3}
  - {fileID: -1192057062, guid: ddbd297f881b704448a52d205078ad04, type: 3}
  - {fileID: 55775876, guid: ddbd297f881b704448a52d205078ad04, type: 3}
  - {fileID: -705923553, guid: ddbd297f881b704448a52d205078ad04, type: 3}
  - {fileID: -1022961879, guid: ddbd297f881b704448a52d205078ad04, type: 3}
  - {fileID: -1803097049, guid: ddbd297f881b704448a52d205078ad04, type: 3}
  - {fileID: -1846737711, guid: ddbd297f881b704448a52d205078ad04, type: 3}
  - {fileID: 1535264004, guid: ddbd297f881b704448a52d205078ad04, type: 3}
  - {fileID: 188280783, guid: ddbd297f881b704448a52d205078ad04, type: 3}
  - {fileID: 285683632, guid: ddbd297f881b704448a52d205078ad04, type: 3}
  - {fileID: -870143930, guid: ddbd297f881b704448a52d205078ad04, type: 3}
  - {fileID: 328124775, guid: ddbd297f881b704448a52d205078ad04, type: 3}
  - {fileID: 794743923, guid: ddbd297f881b704448a52d205078ad04, type: 3}
  - {fileID: 218533409, guid: ddbd297f881b704448a52d205078ad04, type: 3}
  - {fileID: -1270037503, guid: ddbd297f881b704448a52d205078ad04, type: 3}
  - {fileID: -1587521830, guid: ddbd297f881b704448a52d205078ad04, type: 3}
  - {fileID: -2076123987, guid: ddbd297f881b704448a52d205078ad04, type: 3}
  - {fileID: -89503647, guid: ddbd297f881b704448a52d205078ad04, type: 3}
  - {fileID: 364532155, guid: ddbd297f881b704448a52d205078ad04, type: 3}
  - {fileID: 615354283, guid: ddbd297f881b704448a52d205078ad04, type: 3}
  - {fileID: 365267437, guid: ddbd297f881b704448a52d205078ad04, type: 3}
  - {fileID: -1850032799, guid: ddbd297f881b704448a52d205078ad04, type: 3}
  - {fileID: 1071629698, guid: ddbd297f881b704448a52d205078ad04, type: 3}
  - {fileID: -1616694481, guid: ddbd297f881b704448a52d205078ad04, type: 3}
  - {fileID: -2097448504, guid: ddbd297f881b704448a52d205078ad04, type: 3}
  - {fileID: 1457247712, guid: ddbd297f881b704448a52d205078ad04, type: 3}
  - {fileID: 744536124, guid: ddbd297f881b704448a52d205078ad04, type: 3}
  - {fileID: -1727691148, guid: ddbd297f881b704448a52d205078ad04, type: 3}
  - {fileID: 1386861591, guid: ddbd297f881b704448a52d205078ad04, type: 3}
  - {fileID: 1063190952, guid: ddbd297f881b704448a52d205078ad04, type: 3}
  - {fileID: -1628899154, guid: ddbd297f881b704448a52d205078ad04, type: 3}
  - {fileID: 616548549, guid: ddbd297f881b704448a52d205078ad04, type: 3}
  - {fileID: 1130357521, guid: ddbd297f881b704448a52d205078ad04, type: 3}
  - {fileID: 1231317538, guid: ddbd297f881b704448a52d205078ad04, type: 3}
  - {fileID: 1727505613, guid: ddbd297f881b704448a52d205078ad04, type: 3}
  - {fileID: -1199927496, guid: ddbd297f881b704448a52d205078ad04, type: 3}
  - {fileID: 393896025, guid: ddbd297f881b704448a52d205078ad04, type: 3}
  - {fileID: 1463014702, guid: ddbd297f881b704448a52d205078ad04, type: 3}
  - {fileID: 435679444, guid: ddbd297f881b704448a52d205078ad04, type: 3}
  - {fileID: 832071751, guid: ddbd297f881b704448a52d205078ad04, type: 3}
  - {fileID: -1087526123, guid: ddbd297f881b704448a52d205078ad04, type: 3}
  - {fileID: -460974166, guid: ddbd297f881b704448a52d205078ad04, type: 3}
  - {fileID: 503662581, guid: ddbd297f881b704448a52d205078ad04, type: 3}
  - {fileID: 1964101555, guid: ddbd297f881b704448a52d205078ad04, type: 3}
  - {fileID: 374397181, guid: ddbd297f881b704448a52d205078ad04, type: 3}
  - {fileID: -1622682332, guid: ddbd297f881b704448a52d205078ad04, type: 3}
  - {fileID: 1939238472, guid: ddbd297f881b704448a52d205078ad04, type: 3}
  - {fileID: -1671877842, guid: ddbd297f881b704448a52d205078ad04, type: 3}
  - {fileID: 386273503, guid: ddbd297f881b704448a52d205078ad04, type: 3}
  - {fileID: -1472872269, guid: ddbd297f881b704448a52d205078ad04, type: 3}
  - {fileID: -750485409, guid: ddbd297f881b704448a52d205078ad04, type: 3}
  - {fileID: 779076959, guid: ddbd297f881b704448a52d205078ad04, type: 3}
  - {fileID: 1188382962, guid: ddbd297f881b704448a52d205078ad04, type: 3}
  - {fileID: 1124785651, guid: ddbd297f881b704448a52d205078ad04, type: 3}
  - {fileID: 509639966, guid: ddbd297f881b704448a52d205078ad04, type: 3}
  - {fileID: -833384145, guid: ddbd297f881b704448a52d205078ad04, type: 3}
  - {fileID: 1208081726, guid: ddbd297f881b704448a52d205078ad04, type: 3}
  - {fileID: -1527462976, guid: ddbd297f881b704448a52d205078ad04, type: 3}
  - {fileID: 148632946, guid: ddbd297f881b704448a52d205078ad04, type: 3}
  - {fileID: 200694834, guid: ddbd297f881b704448a52d205078ad04, type: 3}
  - {fileID: 189048883, guid: ddbd297f881b704448a52d205078ad04, type: 3}
  - {fileID: 2110391221, guid: ddbd297f881b704448a52d205078ad04, type: 3}
  - {fileID: -1392935242, guid: ddbd297f881b704448a52d205078ad04, type: 3}
  - {fileID: -324651450, guid: ddbd297f881b704448a52d205078ad04, type: 3}
  - {fileID: -1378793031, guid: ddbd297f881b704448a52d205078ad04, type: 3}
  - {fileID: -1721302784, guid: ddbd297f881b704448a52d205078ad04, type: 3}
  - {fileID: 1109799877, guid: ddbd297f881b704448a52d205078ad04, type: 3}
  - {fileID: -1125831574, guid: ddbd297f881b704448a52d205078ad04, type: 3}
  - {fileID: 1118885050, guid: ddbd297f881b704448a52d205078ad04, type: 3}
  - {fileID: -101865242, guid: ddbd297f881b704448a52d205078ad04, type: 3}
  - {fileID: 907451231, guid: ddbd297f881b704448a52d205078ad04, type: 3}
  - {fileID: -778348265, guid: ddbd297f881b704448a52d205078ad04, type: 3}
  - {fileID: 1837007280, guid: ddbd297f881b704448a52d205078ad04, type: 3}
  - {fileID: -164542592, guid: ddbd297f881b704448a52d205078ad04, type: 3}
  - {fileID: -1305592712, guid: ddbd297f881b704448a52d205078ad04, type: 3}
  - {fileID: 205611152, guid: ddbd297f881b704448a52d205078ad04, type: 3}
  - {fileID: -741397784, guid: ddbd297f881b704448a52d205078ad04, type: 3}
  - {fileID: -2015079502, guid: ddbd297f881b704448a52d205078ad04, type: 3}
  - {fileID: 1275307110, guid: ddbd297f881b704448a52d205078ad04, type: 3}
  - {fileID: -917601552, guid: ddbd297f881b704448a52d205078ad04, type: 3}
  - {fileID: -430087390, guid: ddbd297f881b704448a52d205078ad04, type: 3}
  - {fileID: 632030639, guid: ddbd297f881b704448a52d205078ad04, type: 3}
  - {fileID: 504324818, guid: ddbd297f881b704448a52d205078ad04, type: 3}
  - {fileID: 1629766869, guid: ddbd297f881b704448a52d205078ad04, type: 3}
  - {fileID: -1267465400, guid: ddbd297f881b704448a52d205078ad04, type: 3}
  - {fileID: -177538702, guid: ddbd297f881b704448a52d205078ad04, type: 3}
  - {fileID: -794699321, guid: ddbd297f881b704448a52d205078ad04, type: 3}
  - {fileID: 396028364, guid: ddbd297f881b704448a52d205078ad04, type: 3}
  - {fileID: 643542623, guid: ddbd297f881b704448a52d205078ad04, type: 3}
  - {fileID: -1118160420, guid: ddbd297f881b704448a52d205078ad04, type: 3}
  - {fileID: 1082075876, guid: ddbd297f881b704448a52d205078ad04, type: 3}
  - {fileID: 271023442, guid: ddbd297f881b704448a52d205078ad04, type: 3}
  - {fileID: -700297598, guid: ddbd297f881b704448a52d205078ad04, type: 3}
  - {fileID: 1400348980, guid: ddbd297f881b704448a52d205078ad04, type: 3}
  - {fileID: 763168525, guid: ddbd297f881b704448a52d205078ad04, type: 3}
  - {fileID: -1096669513, guid: ddbd297f881b704448a52d205078ad04, type: 3}
  - {fileID: 1684464631, guid: ddbd297f881b704448a52d205078ad04, type: 3}
  - {fileID: 538022722, guid: ddbd297f881b704448a52d205078ad04, type: 3}
  - {fileID: 682503096, guid: ddbd297f881b704448a52d205078ad04, type: 3}
  - {fileID: 1246553329, guid: ddbd297f881b704448a52d205078ad04, type: 3}
  - {fileID: -1119766126, guid: ddbd297f881b704448a52d205078ad04, type: 3}
  - {fileID: -1420116134, guid: ddbd297f881b704448a52d205078ad04, type: 3}
  - {fileID: 1408520034, guid: ddbd297f881b704448a52d205078ad04, type: 3}
  - {fileID: -2099162722, guid: ddbd297f881b704448a52d205078ad04, type: 3}
  - {fileID: 1058672345, guid: ddbd297f881b704448a52d205078ad04, type: 3}
  - {fileID: -2033538959, guid: ddbd297f881b704448a52d205078ad04, type: 3}
  - {fileID: 1828899802, guid: ddbd297f881b704448a52d205078ad04, type: 3}
  - {fileID: -624227997, guid: ddbd297f881b704448a52d205078ad04, type: 3}
  - {fileID: -242742640, guid: ddbd297f881b704448a52d205078ad04, type: 3}
  - {fileID: 339957916, guid: ddbd297f881b704448a52d205078ad04, type: 3}
  - {fileID: -1935698847, guid: ddbd297f881b704448a52d205078ad04, type: 3}
  - {fileID: 1451285389, guid: ddbd297f881b704448a52d205078ad04, type: 3}
  - {fileID: 530324474, guid: ddbd297f881b704448a52d205078ad04, type: 3}
  - {fileID: -830016241, guid: ddbd297f881b704448a52d205078ad04, type: 3}
  - {fileID: 741999045, guid: ddbd297f881b704448a52d205078ad04, type: 3}
  - {fileID: -1767214567, guid: ddbd297f881b704448a52d205078ad04, type: 3}
  - {fileID: -773253314, guid: ddbd297f881b704448a52d205078ad04, type: 3}
  - {fileID: 171838495, guid: ddbd297f881b704448a52d205078ad04, type: 3}
  - {fileID: -1282275114, guid: ddbd297f881b704448a52d205078ad04, type: 3}
  - {fileID: 282450904, guid: ddbd297f881b704448a52d205078ad04, type: 3}
  - {fileID: -1071642324, guid: ddbd297f881b704448a52d205078ad04, type: 3}
  - {fileID: 1232155333, guid: ddbd297f881b704448a52d205078ad04, type: 3}
  - {fileID: -1678938721, guid: ddbd297f881b704448a52d205078ad04, type: 3}
  - {fileID: 37559643, guid: ddbd297f881b704448a52d205078ad04, type: 3}
  - {fileID: -572082038, guid: ddbd297f881b704448a52d205078ad04, type: 3}
  - {fileID: -538490852, guid: ddbd297f881b704448a52d205078ad04, type: 3}
  - {fileID: -951837061, guid: ddbd297f881b704448a52d205078ad04, type: 3}
  - {fileID: -2049564671, guid: ddbd297f881b704448a52d205078ad04, type: 3}
  - {fileID: -1672259840, guid: ddbd297f881b704448a52d205078ad04, type: 3}
  - {fileID: -254317532, guid: ddbd297f881b704448a52d205078ad04, type: 3}
  - {fileID: -854314155, guid: ddbd297f881b704448a52d205078ad04, type: 3}
  - {fileID: -1356144634, guid: ddbd297f881b704448a52d205078ad04, type: 3}
  - {fileID: -1073646490, guid: ddbd297f881b704448a52d205078ad04, type: 3}
  - {fileID: -894857350, guid: ddbd297f881b704448a52d205078ad04, type: 3}
  - {fileID: 48433045, guid: ddbd297f881b704448a52d205078ad04, type: 3}
  - {fileID: 1762689119, guid: ddbd297f881b704448a52d205078ad04, type: 3}
  - {fileID: 1539691146, guid: ddbd297f881b704448a52d205078ad04, type: 3}
  - {fileID: -2011251118, guid: ddbd297f881b704448a52d205078ad04, type: 3}
  - {fileID: -1056171457, guid: ddbd297f881b704448a52d205078ad04, type: 3}
  - {fileID: 254053718, guid: ddbd297f881b704448a52d205078ad04, type: 3}
  - {fileID: -392531761, guid: ddbd297f881b704448a52d205078ad04, type: 3}
  - {fileID: 598067916, guid: ddbd297f881b704448a52d205078ad04, type: 3}
  - {fileID: -293210657, guid: ddbd297f881b704448a52d205078ad04, type: 3}
  - {fileID: 1040008212, guid: ddbd297f881b704448a52d205078ad04, type: 3}
  - {fileID: 1090604775, guid: ddbd297f881b704448a52d205078ad04, type: 3}
  - {fileID: 860127930, guid: ddbd297f881b704448a52d205078ad04, type: 3}
  - {fileID: 968127727, guid: ddbd297f881b704448a52d205078ad04, type: 3}
  - {fileID: -1509508773, guid: ddbd297f881b704448a52d205078ad04, type: 3}
  - {fileID: 382406296, guid: ddbd297f881b704448a52d205078ad04, type: 3}
  - {fileID: 154506589, guid: ddbd297f881b704448a52d205078ad04, type: 3}
  - {fileID: 196981980, guid: ddbd297f881b704448a52d205078ad04, type: 3}
  - {fileID: -1549469080, guid: ddbd297f881b704448a52d205078ad04, type: 3}
  - {fileID: 1390739764, guid: ddbd297f881b704448a52d205078ad04, type: 3}
  - {fileID: 1079790469, guid: ddbd297f881b704448a52d205078ad04, type: 3}
  - {fileID: 427970539, guid: ddbd297f881b704448a52d205078ad04, type: 3}
  - {fileID: 1286650714, guid: ddbd297f881b704448a52d205078ad04, type: 3}
  - {fileID: 1069834677, guid: ddbd297f881b704448a52d205078ad04, type: 3}
  - {fileID: 1419616663, guid: ddbd297f881b704448a52d205078ad04, type: 3}
  - {fileID: 1704848144, guid: ddbd297f881b704448a52d205078ad04, type: 3}
  - {fileID: 430941547, guid: ddbd297f881b704448a52d205078ad04, type: 3}
  - {fileID: -1683815942, guid: ddbd297f881b704448a52d205078ad04, type: 3}
  - {fileID: -1215229077, guid: ddbd297f881b704448a52d205078ad04, type: 3}
  - {fileID: -1366556489, guid: ddbd297f881b704448a52d205078ad04, type: 3}
  - {fileID: 822788536, guid: ddbd297f881b704448a52d205078ad04, type: 3}
  - {fileID: 1963410574, guid: ddbd297f881b704448a52d205078ad04, type: 3}
  - {fileID: 549196425, guid: ddbd297f881b704448a52d205078ad04, type: 3}
  - {fileID: 1286807505, guid: ddbd297f881b704448a52d205078ad04, type: 3}
  - {fileID: 416743109, guid: ddbd297f881b704448a52d205078ad04, type: 3}
  - {fileID: -979928771, guid: ddbd297f881b704448a52d205078ad04, type: 3}
  - {fileID: 523188631, guid: ddbd297f881b704448a52d205078ad04, type: 3}
  - {fileID: 245798186, guid: ddbd297f881b704448a52d205078ad04, type: 3}
  - {fileID: -419118115, guid: ddbd297f881b704448a52d205078ad04, type: 3}
  - {fileID: 1064744136, guid: ddbd297f881b704448a52d205078ad04, type: 3}
  - {fileID: 1234606216, guid: ddbd297f881b704448a52d205078ad04, type: 3}
  - {fileID: 1476282191, guid: ddbd297f881b704448a52d205078ad04, type: 3}
  - {fileID: -111089662, guid: ddbd297f881b704448a52d205078ad04, type: 3}
  - {fileID: 1289487162, guid: ddbd297f881b704448a52d205078ad04, type: 3}
  - {fileID: -1583208619, guid: ddbd297f881b704448a52d205078ad04, type: 3}
  - {fileID: -518204065, guid: ddbd297f881b704448a52d205078ad04, type: 3}
  - {fileID: -2095278847, guid: ddbd297f881b704448a52d205078ad04, type: 3}
  - {fileID: 1650868524, guid: ddbd297f881b704448a52d205078ad04, type: 3}
  - {fileID: 633481707, guid: ddbd297f881b704448a52d205078ad04, type: 3}
  - {fileID: 1328931670, guid: ddbd297f881b704448a52d205078ad04, type: 3}
  - {fileID: -1426191342, guid: ddbd297f881b704448a52d205078ad04, type: 3}
  - {fileID: 1641472047, guid: ddbd297f881b704448a52d205078ad04, type: 3}
  - {fileID: 1655382857, guid: ddbd297f881b704448a52d205078ad04, type: 3}
  - {fileID: 107370028, guid: ddbd297f881b704448a52d205078ad04, type: 3}
  - {fileID: 1642927548, guid: ddbd297f881b704448a52d205078ad04, type: 3}
  - {fileID: -145512808, guid: ddbd297f881b704448a52d205078ad04, type: 3}
  - {fileID: 1687660276, guid: ddbd297f881b704448a52d205078ad04, type: 3}
  - {fileID: 992121718, guid: ddbd297f881b704448a52d205078ad04, type: 3}
  - {fileID: 1417542347, guid: ddbd297f881b704448a52d205078ad04, type: 3}
  - {fileID: -510469346, guid: ddbd297f881b704448a52d205078ad04, type: 3}
  - {fileID: 1833309741, guid: ddbd297f881b704448a52d205078ad04, type: 3}
  - {fileID: 1300635716, guid: ddbd297f881b704448a52d205078ad04, type: 3}
  - {fileID: 455015987, guid: ddbd297f881b704448a52d205078ad04, type: 3}
  - {fileID: 1045868400, guid: ddbd297f881b704448a52d205078ad04, type: 3}
  - {fileID: 1042930765, guid: ddbd297f881b704448a52d205078ad04, type: 3}
  - {fileID: -584271752, guid: ddbd297f881b704448a52d205078ad04, type: 3}
  - {fileID: -336085726, guid: ddbd297f881b704448a52d205078ad04, type: 3}
  - {fileID: -1325125723, guid: ddbd297f881b704448a52d205078ad04, type: 3}
  - {fileID: -2082449777, guid: ddbd297f881b704448a52d205078ad04, type: 3}
  - {fileID: -1764944568, guid: ddbd297f881b704448a52d205078ad04, type: 3}
  - {fileID: 1196430096, guid: ddbd297f881b704448a52d205078ad04, type: 3}
  - {fileID: -309647018, guid: ddbd297f881b704448a52d205078ad04, type: 3}
  - {fileID: 313599202, guid: ddbd297f881b704448a52d205078ad04, type: 3}
  - {fileID: 1439589776, guid: ddbd297f881b704448a52d205078ad04, type: 3}
  - {fileID: 1887124155, guid: ddbd297f881b704448a52d205078ad04, type: 3}
  - {fileID: 1247564692, guid: ddbd297f881b704448a52d205078ad04, type: 3}
  - {fileID: -662074597, guid: ddbd297f881b704448a52d205078ad04, type: 3}
  - {fileID: -1701143652, guid: ddbd297f881b704448a52d205078ad04, type: 3}
  - {fileID: 460069941, guid: ddbd297f881b704448a52d205078ad04, type: 3}
  - {fileID: -188445175, guid: ddbd297f881b704448a52d205078ad04, type: 3}
  - {fileID: -810496202, guid: ddbd297f881b704448a52d205078ad04, type: 3}
  - {fileID: -478484902, guid: ddbd297f881b704448a52d205078ad04, type: 3}
  - {fileID: 1339302314, guid: ddbd297f881b704448a52d205078ad04, type: 3}
  - {fileID: -1760267727, guid: ddbd297f881b704448a52d205078ad04, type: 3}
  - {fileID: 214633715, guid: ddbd297f881b704448a52d205078ad04, type: 3}
  - {fileID: -34303203, guid: ddbd297f881b704448a52d205078ad04, type: 3}
  - {fileID: -2044550412, guid: ddbd297f881b704448a52d205078ad04, type: 3}
  - {fileID: 932696893, guid: ddbd297f881b704448a52d205078ad04, type: 3}
  - {fileID: -380497475, guid: ddbd297f881b704448a52d205078ad04, type: 3}
  - {fileID: 363154172, guid: ddbd297f881b704448a52d205078ad04, type: 3}
  - {fileID: -586942163, guid: ddbd297f881b704448a52d205078ad04, type: 3}
  - {fileID: 1095206058, guid: ddbd297f881b704448a52d205078ad04, type: 3}
  - {fileID: 1558105691, guid: ddbd297f881b704448a52d205078ad04, type: 3}
  - {fileID: -1194234827, guid: ddbd297f881b704448a52d205078ad04, type: 3}
  - {fileID: -1764366852, guid: ddbd297f881b704448a52d205078ad04, type: 3}
  - {fileID: -1788443714, guid: ddbd297f881b704448a52d205078ad04, type: 3}
  - {fileID: 1277169398, guid: ddbd297f881b704448a52d205078ad04, type: 3}
  - {fileID: 1739767701, guid: ddbd297f881b704448a52d205078ad04, type: 3}
  - {fileID: 1166402789, guid: ddbd297f881b704448a52d205078ad04, type: 3}
  - {fileID: 2136576997, guid: ddbd297f881b704448a52d205078ad04, type: 3}
  - {fileID: -422092124, guid: ddbd297f881b704448a52d205078ad04, type: 3}
  - {fileID: 614661381, guid: ddbd297f881b704448a52d205078ad04, type: 3}
  - {fileID: 735265475, guid: ddbd297f881b704448a52d205078ad04, type: 3}
  - {fileID: 1993911983, guid: ddbd297f881b704448a52d205078ad04, type: 3}
  - {fileID: 12935602, guid: ddbd297f881b704448a52d205078ad04, type: 3}
  - {fileID: 74690228, guid: ddbd297f881b704448a52d205078ad04, type: 3}
  - {fileID: -1176444153, guid: ddbd297f881b704448a52d205078ad04, type: 3}
  - {fileID: 2116359768, guid: ddbd297f881b704448a52d205078ad04, type: 3}
  - {fileID: -511836453, guid: ddbd297f881b704448a52d205078ad04, type: 3}
  - {fileID: -389250372, guid: ddbd297f881b704448a52d205078ad04, type: 3}
  - {fileID: -555452036, guid: ddbd297f881b704448a52d205078ad04, type: 3}
  - {fileID: 1802791088, guid: ddbd297f881b704448a52d205078ad04, type: 3}
  - {fileID: 831729284, guid: ddbd297f881b704448a52d205078ad04, type: 3}
  - {fileID: -1269256877, guid: ddbd297f881b704448a52d205078ad04, type: 3}
  - {fileID: -231922325, guid: ddbd297f881b704448a52d205078ad04, type: 3}
  - {fileID: -1142831326, guid: ddbd297f881b704448a52d205078ad04, type: 3}
  - {fileID: -1052953703, guid: ddbd297f881b704448a52d205078ad04, type: 3}
  - {fileID: 1641490520, guid: ddbd297f881b704448a52d205078ad04, type: 3}
  - {fileID: -648806175, guid: ddbd297f881b704448a52d205078ad04, type: 3}
  - {fileID: 1570877521, guid: ddbd297f881b704448a52d205078ad04, type: 3}
  - {fileID: 2125073178, guid: ddbd297f881b704448a52d205078ad04, type: 3}
  - {fileID: -1661607675, guid: ddbd297f881b704448a52d205078ad04, type: 3}
  - {fileID: 815140573, guid: ddbd297f881b704448a52d205078ad04, type: 3}
  - {fileID: -1445510226, guid: ddbd297f881b704448a52d205078ad04, type: 3}
  - {fileID: 1970389935, guid: ddbd297f881b704448a52d205078ad04, type: 3}
  - {fileID: -59532944, guid: ddbd297f881b704448a52d205078ad04, type: 3}
  - {fileID: 1396419587, guid: ddbd297f881b704448a52d205078ad04, type: 3}
  - {fileID: -2135089456, guid: ddbd297f881b704448a52d205078ad04, type: 3}
  - {fileID: 119061383, guid: ddbd297f881b704448a52d205078ad04, type: 3}
  - {fileID: -1916969098, guid: ddbd297f881b704448a52d205078ad04, type: 3}
  - {fileID: -445627957, guid: ddbd297f881b704448a52d205078ad04, type: 3}
  - {fileID: 1615956690, guid: ddbd297f881b704448a52d205078ad04, type: 3}
  - {fileID: -2109925117, guid: ddbd297f881b704448a52d205078ad04, type: 3}
  - {fileID: 1993266464, guid: ddbd297f881b704448a52d205078ad04, type: 3}
  - {fileID: -1114431339, guid: ddbd297f881b704448a52d205078ad04, type: 3}
  - {fileID: -512382453, guid: ddbd297f881b704448a52d205078ad04, type: 3}
  - {fileID: 449454343, guid: ddbd297f881b704448a52d205078ad04, type: 3}
  - {fileID: 609511978, guid: ddbd297f881b704448a52d205078ad04, type: 3}
  - {fileID: 1721795644, guid: ddbd297f881b704448a52d205078ad04, type: 3}
  - {fileID: -2077399642, guid: ddbd297f881b704448a52d205078ad04, type: 3}
  - {fileID: -1136070438, guid: ddbd297f881b704448a52d205078ad04, type: 3}
  - {fileID: 1837250720, guid: ddbd297f881b704448a52d205078ad04, type: 3}
  - {fileID: -271629475, guid: ddbd297f881b704448a52d205078ad04, type: 3}
  - {fileID: -2095032706, guid: ddbd297f881b704448a52d205078ad04, type: 3}
  - {fileID: 895748929, guid: ddbd297f881b704448a52d205078ad04, type: 3}
  - {fileID: 474590222, guid: ddbd297f881b704448a52d205078ad04, type: 3}
  - {fileID: -87477397, guid: ddbd297f881b704448a52d205078ad04, type: 3}
  - {fileID: -1811108484, guid: ddbd297f881b704448a52d205078ad04, type: 3}
  - {fileID: 1591701292, guid: ddbd297f881b704448a52d205078ad04, type: 3}
  - {fileID: 550349776, guid: ddbd297f881b704448a52d205078ad04, type: 3}
  - {fileID: 830256427, guid: ddbd297f881b704448a52d205078ad04, type: 3}
  - {fileID: -1469402238, guid: ddbd297f881b704448a52d205078ad04, type: 3}
  - {fileID: 1098799415, guid: ddbd297f881b704448a52d205078ad04, type: 3}
  - {fileID: -1353287133, guid: ddbd297f881b704448a52d205078ad04, type: 3}
  - {fileID: 2117351307, guid: ddbd297f881b704448a52d205078ad04, type: 3}
  - {fileID: 1758980080, guid: ddbd297f881b704448a52d205078ad04, type: 3}
  - {fileID: -1973932531, guid: ddbd297f881b704448a52d205078ad04, type: 3}
  - {fileID: 2088937593, guid: ddbd297f881b704448a52d205078ad04, type: 3}
  - {fileID: -374446969, guid: ddbd297f881b704448a52d205078ad04, type: 3}
  - {fileID: -970158727, guid: ddbd297f881b704448a52d205078ad04, type: 3}
  - {fileID: -1867016298, guid: ddbd297f881b704448a52d205078ad04, type: 3}
  - {fileID: -347246872, guid: ddbd297f881b704448a52d205078ad04, type: 3}
  - {fileID: -1520069357, guid: ddbd297f881b704448a52d205078ad04, type: 3}
  - {fileID: 2096802036, guid: ddbd297f881b704448a52d205078ad04, type: 3}
  - {fileID: -1092440203, guid: ddbd297f881b704448a52d205078ad04, type: 3}
  - {fileID: -1854908493, guid: ddbd297f881b704448a52d205078ad04, type: 3}
  - {fileID: -699926341, guid: ddbd297f881b704448a52d205078ad04, type: 3}
  - {fileID: 365584716, guid: ddbd297f881b704448a52d205078ad04, type: 3}
  - {fileID: -1938561696, guid: ddbd297f881b704448a52d205078ad04, type: 3}
  - {fileID: -722766306, guid: ddbd297f881b704448a52d205078ad04, type: 3}
  - {fileID: -463128630, guid: ddbd297f881b704448a52d205078ad04, type: 3}
  - {fileID: -761281208, guid: ddbd297f881b704448a52d205078ad04, type: 3}
  - {fileID: -1514434597, guid: ddbd297f881b704448a52d205078ad04, type: 3}
  - {fileID: 1732040554, guid: ddbd297f881b704448a52d205078ad04, type: 3}
  - {fileID: -599579660, guid: ddbd297f881b704448a52d205078ad04, type: 3}
  - {fileID: 1182771496, guid: ddbd297f881b704448a52d205078ad04, type: 3}
  - {fileID: -910454479, guid: ddbd297f881b704448a52d205078ad04, type: 3}
  - {fileID: 1362102618, guid: ddbd297f881b704448a52d205078ad04, type: 3}
  - {fileID: -1794748191, guid: ddbd297f881b704448a52d205078ad04, type: 3}
  - {fileID: 1076855411, guid: ddbd297f881b704448a52d205078ad04, type: 3}
  - {fileID: -1103667947, guid: ddbd297f881b704448a52d205078ad04, type: 3}
  - {fileID: 689276210, guid: ddbd297f881b704448a52d205078ad04, type: 3}
  - {fileID: 776484498, guid: ddbd297f881b704448a52d205078ad04, type: 3}
  - {fileID: 451415237, guid: ddbd297f881b704448a52d205078ad04, type: 3}
  - {fileID: -1532376219, guid: ddbd297f881b704448a52d205078ad04, type: 3}
  - {fileID: 1540998801, guid: ddbd297f881b704448a52d205078ad04, type: 3}
  - {fileID: 1293922253, guid: ddbd297f881b704448a52d205078ad04, type: 3}
  - {fileID: 566869516, guid: ddbd297f881b704448a52d205078ad04, type: 3}
  - {fileID: -1516509026, guid: ddbd297f881b704448a52d205078ad04, type: 3}
  - {fileID: 1567856222, guid: ddbd297f881b704448a52d205078ad04, type: 3}
  - {fileID: 126759626, guid: ddbd297f881b704448a52d205078ad04, type: 3}
  - {fileID: 780453427, guid: ddbd297f881b704448a52d205078ad04, type: 3}
  - {fileID: 1725706304, guid: ddbd297f881b704448a52d205078ad04, type: 3}
  - {fileID: 47324993, guid: ddbd297f881b704448a52d205078ad04, type: 3}
  - {fileID: 1768675820, guid: ddbd297f881b704448a52d205078ad04, type: 3}
  - {fileID: -639436669, guid: ddbd297f881b704448a52d205078ad04, type: 3}
  - {fileID: 1165258830, guid: ddbd297f881b704448a52d205078ad04, type: 3}
  - {fileID: -555185150, guid: ddbd297f881b704448a52d205078ad04, type: 3}
  - {fileID: 348067323, guid: ddbd297f881b704448a52d205078ad04, type: 3}
  - {fileID: -722595290, guid: ddbd297f881b704448a52d205078ad04, type: 3}
  - {fileID: 876599776, guid: ddbd297f881b704448a52d205078ad04, type: 3}
  - {fileID: 2052715751, guid: ddbd297f881b704448a52d205078ad04, type: 3}
  - {fileID: -485741434, guid: ddbd297f881b704448a52d205078ad04, type: 3}
  - {fileID: 1495815745, guid: ddbd297f881b704448a52d205078ad04, type: 3}
  - {fileID: 52133798, guid: ddbd297f881b704448a52d205078ad04, type: 3}
  - {fileID: -2039510358, guid: ddbd297f881b704448a52d205078ad04, type: 3}
  - {fileID: 313007616, guid: ddbd297f881b704448a52d205078ad04, type: 3}
  - {fileID: -1737549535, guid: ddbd297f881b704448a52d205078ad04, type: 3}
  - {fileID: 1276991841, guid: ddbd297f881b704448a52d205078ad04, type: 3}
  - {fileID: -699313956, guid: ddbd297f881b704448a52d205078ad04, type: 3}
  - {fileID: -13366906, guid: ddbd297f881b704448a52d205078ad04, type: 3}
  - {fileID: 84140984, guid: ddbd297f881b704448a52d205078ad04, type: 3}
  - {fileID: 1163169858, guid: ddbd297f881b704448a52d205078ad04, type: 3}
  - {fileID: 1189906707, guid: ddbd297f881b704448a52d205078ad04, type: 3}
  - {fileID: -795214960, guid: ddbd297f881b704448a52d205078ad04, type: 3}
  - {fileID: -471912407, guid: ddbd297f881b704448a52d205078ad04, type: 3}
  - {fileID: 748778260, guid: ddbd297f881b704448a52d205078ad04, type: 3}
  - {fileID: 991709014, guid: ddbd297f881b704448a52d205078ad04, type: 3}
  - {fileID: -1261130616, guid: ddbd297f881b704448a52d205078ad04, type: 3}
  - {fileID: -141363429, guid: ddbd297f881b704448a52d205078ad04, type: 3}
  - {fileID: -603987472, guid: ddbd297f881b704448a52d205078ad04, type: 3}
  - {fileID: 1398400293, guid: ddbd297f881b704448a52d205078ad04, type: 3}
  - {fileID: -1489524425, guid: ddbd297f881b704448a52d205078ad04, type: 3}
  - {fileID: -850559013, guid: ddbd297f881b704448a52d205078ad04, type: 3}
  - {fileID: 681599381, guid: ddbd297f881b704448a52d205078ad04, type: 3}
  - {fileID: 981475374, guid: ddbd297f881b704448a52d205078ad04, type: 3}
  - {fileID: -209922033, guid: ddbd297f881b704448a52d205078ad04, type: 3}
  - {fileID: -681972798, guid: ddbd297f881b704448a52d205078ad04, type: 3}
  - {fileID: 1651716323, guid: ddbd297f881b704448a52d205078ad04, type: 3}
  - {fileID: -1556855460, guid: ddbd297f881b704448a52d205078ad04, type: 3}
  - {fileID: 1357920894, guid: ddbd297f881b704448a52d205078ad04, type: 3}
  - {fileID: -1767795484, guid: ddbd297f881b704448a52d205078ad04, type: 3}
  - {fileID: 1553192297, guid: ddbd297f881b704448a52d205078ad04, type: 3}
  - {fileID: -797371090, guid: ddbd297f881b704448a52d205078ad04, type: 3}
  - {fileID: -1015067436, guid: ddbd297f881b704448a52d205078ad04, type: 3}
  - {fileID: -435606136, guid: ddbd297f881b704448a52d205078ad04, type: 3}
  - {fileID: -546717179, guid: ddbd297f881b704448a52d205078ad04, type: 3}
  - {fileID: 678721838, guid: ddbd297f881b704448a52d205078ad04, type: 3}
  - {fileID: 586836786, guid: ddbd297f881b704448a52d205078ad04, type: 3}
  - {fileID: -1739356304, guid: ddbd297f881b704448a52d205078ad04, type: 3}
  - {fileID: -2140404440, guid: ddbd297f881b704448a52d205078ad04, type: 3}
  m_PackedSpriteNamesToIndex:
  - Dungeon Tileset_608
  - Dungeon Tileset_609
  - Dungeon Tileset_604
  - Dungeon Tileset_605
  - Dungeon Tileset_606
  - Dungeon Tileset_607
  - Dungeon Tileset_600
  - Dungeon Tileset_601
  - Dungeon Tileset_136
  - Dungeon Tileset_602
  - Dungeon Tileset_137
  - Dungeon Tileset_603
  - Dungeon Tileset_134
  - Dungeon Tileset_135
  - Dungeon Tileset_129
  - Dungeon Tileset_132
  - Dungeon Tileset_128
  - Dungeon Tileset_133
  - Dungeon Tileset_130
  - Dungeon Tileset_131
  - Dungeon Tileset_189
  - Dungeon Tileset_188
  - Dungeon Tileset_158
  - Dungeon Tileset_121
  - Dungeon Tileset_159
  - Dungeon Tileset_120
  - Dungeon Tileset_123
  - Dungeon Tileset_183
  - Dungeon Tileset_138
  - Dungeon Tileset_122
  - Dungeon Tileset_154
  - Dungeon Tileset_182
  - Dungeon Tileset_139
  - Dungeon Tileset_125
  - Dungeon Tileset_155
  - Dungeon Tileset_149
  - Dungeon Tileset_181
  - Dungeon Tileset_124
  - Dungeon Tileset_156
  - Dungeon Tileset_148
  - Dungeon Tileset_180
  - Dungeon Tileset_127
  - Dungeon Tileset_157
  - Dungeon Tileset_147
  - Dungeon Tileset_187
  - Dungeon Tileset_126
  - Dungeon Tileset_150
  - Dungeon Tileset_146
  - Dungeon Tileset_186
  - Dungeon Tileset_151
  - Dungeon Tileset_145
  - Dungeon Tileset_185
  - Dungeon Tileset_152
  - Dungeon Tileset_144
  - Dungeon Tileset_184
  - Dungeon Tileset_153
  - Dungeon Tileset_143
  - Dungeon Tileset_142
  - Dungeon Tileset_141
  - Dungeon Tileset_140
  - Dungeon Tileset_396
  - Dungeon Tileset_397
  - Dungeon Tileset_394
  - Dungeon Tileset_338
  - Dungeon Tileset_395
  - Dungeon Tileset_389
  - Dungeon Tileset_339
  - Dungeon Tileset_392
  - Dungeon Tileset_388
  - Dungeon Tileset_393
  - Dungeon Tileset_390
  - Dungeon Tileset_391
  - Dungeon Tileset_329
  - Dungeon Tileset_328
  - Dungeon Tileset_561
  - Dungeon Tileset_560
  - Dungeon Tileset_330
  - Dungeon Tileset_563
  - Dungeon Tileset_381
  - Dungeon Tileset_331
  - Dungeon Tileset_349
  - Dungeon Tileset_562
  - Dungeon Tileset_380
  - Dungeon Tileset_332
  - Dungeon Tileset_348
  - Dungeon Tileset_565
  - Dungeon Tileset_383
  - Dungeon Tileset_333
  - Dungeon Tileset_323
  - Dungeon Tileset_564
  - Dungeon Tileset_398
  - Dungeon Tileset_382
  - Dungeon Tileset_334
  - Dungeon Tileset_322
  - Dungeon Tileset_318
  - Dungeon Tileset_231
  - Dungeon Tileset_567
  - Dungeon Tileset_399
  - Dungeon Tileset_385
  - Dungeon Tileset_335
  - Dungeon Tileset_321
  - Dungeon Tileset_319
  - Dungeon Tileset_345
  - Dungeon Tileset_230
  - Dungeon Tileset_566
  - Dungeon Tileset_384
  - Dungeon Tileset_336
  - Dungeon Tileset_320
  - Dungeon Tileset_316
  - Dungeon Tileset_344
  - Dungeon Tileset_233
  - Dungeon Tileset_569
  - Dungeon Tileset_387
  - Dungeon Tileset_337
  - Dungeon Tileset_327
  - Dungeon Tileset_317
  - Dungeon Tileset_347
  - Dungeon Tileset_232
  - Dungeon Tileset_568
  - Dungeon Tileset_386
  - Dungeon Tileset_326
  - Dungeon Tileset_314
  - Dungeon Tileset_346
  - Dungeon Tileset_235
  - Dungeon Tileset_325
  - Dungeon Tileset_315
  - Dungeon Tileset_341
  - Dungeon Tileset_234
  - Dungeon Tileset_324
  - Dungeon Tileset_312
  - Dungeon Tileset_340
  - Dungeon Tileset_237
  - Dungeon Tileset_549
  - Dungeon Tileset_313
  - Dungeon Tileset_343
  - Dungeon Tileset_236
  - Dungeon Tileset_548
  - Dungeon Tileset_310
  - Dungeon Tileset_342
  - Dungeon Tileset_239
  - Dungeon Tileset_311
  - Dungeon Tileset_238
  - Dungeon Tileset_598
  - Dungeon Tileset_599
  - Dungeon Tileset_219
  - Dungeon Tileset_543
  - Dungeon Tileset_218
  - Dungeon Tileset_594
  - Dungeon Tileset_542
  - Dungeon Tileset_578
  - Dungeon Tileset_411
  - Dungeon Tileset_595
  - Dungeon Tileset_589
  - Dungeon Tileset_541
  - Dungeon Tileset_579
  - Dungeon Tileset_410
  - Dungeon Tileset_596
  - Dungeon Tileset_588
  - Dungeon Tileset_540
  - Dungeon Tileset_576
  - Dungeon Tileset_413
  - Dungeon Tileset_597
  - Dungeon Tileset_587
  - Dungeon Tileset_547
  - Dungeon Tileset_577
  - Dungeon Tileset_412
  - Dungeon Tileset_464
  - Dungeon Tileset_590
  - Dungeon Tileset_586
  - Dungeon Tileset_546
  - Dungeon Tileset_574
  - Dungeon Tileset_415
  - Dungeon Tileset_465
  - Dungeon Tileset_213
  - Dungeon Tileset_591
  - Dungeon Tileset_585
  - Dungeon Tileset_545
  - Dungeon Tileset_575
  - Dungeon Tileset_414
  - Dungeon Tileset_466
  - Dungeon Tileset_212
  - Dungeon Tileset_228
  - Dungeon Tileset_592
  - Dungeon Tileset_584
  - Dungeon Tileset_544
  - Dungeon Tileset_572
  - Dungeon Tileset_417
  - Dungeon Tileset_467
  - Dungeon Tileset_211
  - Dungeon Tileset_229
  - Dungeon Tileset_593
  - Dungeon Tileset_583
  - Dungeon Tileset_573
  - Dungeon Tileset_416
  - Dungeon Tileset_460
  - Dungeon Tileset_210
  - Dungeon Tileset_226
  - Dungeon Tileset_582
  - Dungeon Tileset_570
  - Dungeon Tileset_499
  - Dungeon Tileset_419
  - Dungeon Tileset_461
  - Dungeon Tileset_217
  - Dungeon Tileset_227
  - Dungeon Tileset_581
  - Dungeon Tileset_571
  - Dungeon Tileset_498
  - Dungeon Tileset_418
  - Dungeon Tileset_462
  - Dungeon Tileset_216
  - Dungeon Tileset_224
  - Dungeon Tileset_580
  - Dungeon Tileset_463
  - Dungeon Tileset_215
  - Dungeon Tileset_225
  - Dungeon Tileset_214
  - Dungeon Tileset_222
  - Dungeon Tileset_223
  - Dungeon Tileset_220
  - Dungeon Tileset_221
  - Dungeon Tileset_468
  - Dungeon Tileset_491
  - Dungeon Tileset_469
  - Dungeon Tileset_490
  - Dungeon Tileset_8
  - Dungeon Tileset_493
  - Dungeon Tileset_9
  - Dungeon Tileset_492
  - Dungeon Tileset_408
  - Dungeon Tileset_11
  - Dungeon Tileset_495
  - Dungeon Tileset_409
  - Dungeon Tileset_10
  - Dungeon Tileset_494
  - Dungeon Tileset_406
  - Dungeon Tileset_13
  - Dungeon Tileset_497
  - Dungeon Tileset_407
  - Dungeon Tileset_12
  - Dungeon Tileset_64
  - Dungeon Tileset_496
  - Dungeon Tileset_404
  - Dungeon Tileset_15
  - Dungeon Tileset_65
  - Dungeon Tileset_2
  - Dungeon Tileset_405
  - Dungeon Tileset_14
  - Dungeon Tileset_66
  - Dungeon Tileset_3
  - Dungeon Tileset_402
  - Dungeon Tileset_17
  - Dungeon Tileset_67
  - Dungeon Tileset_0
  - Dungeon Tileset_77
  - Dungeon Tileset_403
  - Dungeon Tileset_16
  - Dungeon Tileset_60
  - Dungeon Tileset_1
  - Dungeon Tileset_76
  - Dungeon Tileset_400
  - Dungeon Tileset_19
  - Dungeon Tileset_61
  - Dungeon Tileset_6
  - Dungeon Tileset_75
  - Dungeon Tileset_401
  - Dungeon Tileset_18
  - Dungeon Tileset_62
  - Dungeon Tileset_7
  - Dungeon Tileset_74
  - Dungeon Tileset_63
  - Dungeon Tileset_4
  - Dungeon Tileset_73
  - Dungeon Tileset_5
  - Dungeon Tileset_72
  - Dungeon Tileset_71
  - Dungeon Tileset_70
  - Dungeon Tileset_68
  - Dungeon Tileset_69
  - Dungeon Tileset_640
  - Dungeon Tileset_641
  - Dungeon Tileset_642
  - Dungeon Tileset_622
  - Dungeon Tileset_79
  - Dungeon Tileset_643
  - Dungeon Tileset_623
  - Dungeon Tileset_78
  - Dungeon Tileset_644
  - Dungeon Tileset_620
  - Dungeon Tileset_645
  - Dungeon Tileset_621
  - Dungeon Tileset_635
  - Dungeon Tileset_646
  - Dungeon Tileset_626
  - Dungeon Tileset_634
  - Dungeon Tileset_647
  - Dungeon Tileset_627
  - Dungeon Tileset_637
  - Dungeon Tileset_648
  - Dungeon Tileset_624
  - Dungeon Tileset_636
  - Dungeon Tileset_649
  - Dungeon Tileset_625
  - Dungeon Tileset_631
  - Dungeon Tileset_630
  - Dungeon Tileset_633
  - Dungeon Tileset_628
  - Dungeon Tileset_632
  - Dungeon Tileset_629
  - Dungeon Tileset_639
  - Dungeon Tileset_638
  - Dungeon Tileset_110
  - Dungeon Tileset_111
  - Dungeon Tileset_619
  - Dungeon Tileset_112
  - Dungeon Tileset_172
  - Dungeon Tileset_618
  - Dungeon Tileset_113
  - Dungeon Tileset_103
  - Dungeon Tileset_173
  - Dungeon Tileset_617
  - Dungeon Tileset_114
  - Dungeon Tileset_102
  - Dungeon Tileset_170
  - Dungeon Tileset_616
  - Dungeon Tileset_115
  - Dungeon Tileset_101
  - Dungeon Tileset_171
  - Dungeon Tileset_165
  - Dungeon Tileset_615
  - Dungeon Tileset_116
  - Dungeon Tileset_100
  - Dungeon Tileset_176
  - Dungeon Tileset_164
  - Dungeon Tileset_614
  - Dungeon Tileset_117
  - Dungeon Tileset_107
  - Dungeon Tileset_177
  - Dungeon Tileset_167
  - Dungeon Tileset_613
  - Dungeon Tileset_118
  - Dungeon Tileset_106
  - Dungeon Tileset_174
  - Dungeon Tileset_166
  - Dungeon Tileset_198
  - Dungeon Tileset_612
  - Dungeon Tileset_119
  - Dungeon Tileset_105
  - Dungeon Tileset_175
  - Dungeon Tileset_161
  - Dungeon Tileset_199
  - Dungeon Tileset_611
  - Dungeon Tileset_104
  - Dungeon Tileset_160
  - Dungeon Tileset_610
  - Dungeon Tileset_163
  - Dungeon Tileset_178
  - Dungeon Tileset_162
  - Dungeon Tileset_109
  - Dungeon Tileset_179
  - Dungeon Tileset_108
  - Dungeon Tileset_190
  - Dungeon Tileset_169
  - Dungeon Tileset_191
  - Dungeon Tileset_168
  - Dungeon Tileset_192
  - Dungeon Tileset_193
  - Dungeon Tileset_194
  - Dungeon Tileset_195
  - Dungeon Tileset_196
  - Dungeon Tileset_197
  - Dungeon Tileset_301
  - Dungeon Tileset_300
  - Dungeon Tileset_303
  - Dungeon Tileset_302
  - Dungeon Tileset_374
  - Dungeon Tileset_305
  - Dungeon Tileset_375
  - Dungeon Tileset_304
  - Dungeon Tileset_376
  - Dungeon Tileset_307
  - Dungeon Tileset_377
  - Dungeon Tileset_367
  - Dungeon Tileset_306
  - Dungeon Tileset_370
  - Dungeon Tileset_366
  - Dungeon Tileset_309
  - Dungeon Tileset_371
  - Dungeon Tileset_365
  - Dungeon Tileset_308
  - Dungeon Tileset_372
  - Dungeon Tileset_364
  - Dungeon Tileset_373
  - Dungeon Tileset_363
  - Dungeon Tileset_362
  - Dungeon Tileset_358
  - Dungeon Tileset_361
  - Dungeon Tileset_359
  - Dungeon Tileset_360
  - Dungeon Tileset_378
  - Dungeon Tileset_379
  - Dungeon Tileset_514
  - Dungeon Tileset_352
  - Dungeon Tileset_515
  - Dungeon Tileset_353
  - Dungeon Tileset_280
  - Dungeon Tileset_516
  - Dungeon Tileset_350
  - Dungeon Tileset_281
  - Dungeon Tileset_517
  - Dungeon Tileset_507
  - Dungeon Tileset_369
  - Dungeon Tileset_351
  - Dungeon Tileset_282
  - Dungeon Tileset_558
  - Dungeon Tileset_510
  - Dungeon Tileset_506
  - Dungeon Tileset_368
  - Dungeon Tileset_356
  - Dungeon Tileset_283
  - Dungeon Tileset_293
  - Dungeon Tileset_559
  - Dungeon Tileset_511
  - Dungeon Tileset_505
  - Dungeon Tileset_357
  - Dungeon Tileset_284
  - Dungeon Tileset_292
  - Dungeon Tileset_244
  - Dungeon Tileset_512
  - Dungeon Tileset_504
  - Dungeon Tileset_354
  - Dungeon Tileset_285
  - Dungeon Tileset_291
  - Dungeon Tileset_245
  - Dungeon Tileset_513
  - Dungeon Tileset_503
  - Dungeon Tileset_355
  - Dungeon Tileset_286
  - Dungeon Tileset_290
  - Dungeon Tileset_246
  - Dungeon Tileset_502
  - Dungeon Tileset_538
  - Dungeon Tileset_287
  - Dungeon Tileset_297
  - Dungeon Tileset_247
  - Dungeon Tileset_257
  - Dungeon Tileset_501
  - Dungeon Tileset_539
  - Dungeon Tileset_288
  - Dungeon Tileset_296
  - Dungeon Tileset_208
  - Dungeon Tileset_240
  - Dungeon Tileset_256
  - Dungeon Tileset_500
  - Dungeon Tileset_289
  - Dungeon Tileset_295
  - Dungeon Tileset_209
  - Dungeon Tileset_241
  - Dungeon Tileset_255
  - Dungeon Tileset_294
  - Dungeon Tileset_242
  - Dungeon Tileset_254
  - Dungeon Tileset_550
  - Dungeon Tileset_518
  - Dungeon Tileset_243
  - Dungeon Tileset_253
  - Dungeon Tileset_551
  - Dungeon Tileset_519
  - Dungeon Tileset_529
  - Dungeon Tileset_252
  - Dungeon Tileset_268
  - Dungeon Tileset_552
  - Dungeon Tileset_532
  - Dungeon Tileset_528
  - Dungeon Tileset_299
  - Dungeon Tileset_251
  - Dungeon Tileset_269
  - Dungeon Tileset_553
  - Dungeon Tileset_533
  - Dungeon Tileset_298
  - Dungeon Tileset_250
  - Dungeon Tileset_554
  - Dungeon Tileset_530
  - Dungeon Tileset_555
  - Dungeon Tileset_509
  - Dungeon Tileset_531
  - Dungeon Tileset_525
  - Dungeon Tileset_200
  - Dungeon Tileset_248
  - Dungeon Tileset_556
  - Dungeon Tileset_508
  - Dungeon Tileset_536
  - Dungeon Tileset_524
  - Dungeon Tileset_201
  - Dungeon Tileset_249
  - Dungeon Tileset_279
  - Dungeon Tileset_557
  - Dungeon Tileset_537
  - Dungeon Tileset_527
  - Dungeon Tileset_202
  - Dungeon Tileset_262
  - Dungeon Tileset_278
  - Dungeon Tileset_534
  - Dungeon Tileset_526
  - Dungeon Tileset_203
  - Dungeon Tileset_263
  - Dungeon Tileset_535
  - Dungeon Tileset_521
  - Dungeon Tileset_486
  - Dungeon Tileset_204
  - Dungeon Tileset_260
  - Dungeon Tileset_520
  - Dungeon Tileset_487
  - Dungeon Tileset_477
  - Dungeon Tileset_205
  - Dungeon Tileset_259
  - Dungeon Tileset_261
  - Dungeon Tileset_275
  - Dungeon Tileset_523
  - Dungeon Tileset_484
  - Dungeon Tileset_428
  - Dungeon Tileset_476
  - Dungeon Tileset_206
  - Dungeon Tileset_258
  - Dungeon Tileset_266
  - Dungeon Tileset_274
  - Dungeon Tileset_522
  - Dungeon Tileset_485
  - Dungeon Tileset_429
  - Dungeon Tileset_475
  - Dungeon Tileset_207
  - Dungeon Tileset_267
  - Dungeon Tileset_277
  - Dungeon Tileset_482
  - Dungeon Tileset_474
  - Dungeon Tileset_264
  - Dungeon Tileset_276
  - Dungeon Tileset_483
  - Dungeon Tileset_473
  - Dungeon Tileset_265
  - Dungeon Tileset_271
  - Dungeon Tileset_480
  - Dungeon Tileset_472
  - Dungeon Tileset_448
  - Dungeon Tileset_270
  - Dungeon Tileset_481
  - Dungeon Tileset_439
  - Dungeon Tileset_471
  - Dungeon Tileset_449
  - Dungeon Tileset_273
  - Dungeon Tileset_438
  - Dungeon Tileset_470
  - Dungeon Tileset_272
  - Dungeon Tileset_420
  - Dungeon Tileset_421
  - Dungeon Tileset_459
  - Dungeon Tileset_422
  - Dungeon Tileset_442
  - Dungeon Tileset_458
  - Dungeon Tileset_423
  - Dungeon Tileset_433
  - Dungeon Tileset_443
  - Dungeon Tileset_488
  - Dungeon Tileset_424
  - Dungeon Tileset_432
  - Dungeon Tileset_440
  - Dungeon Tileset_489
  - Dungeon Tileset_425
  - Dungeon Tileset_431
  - Dungeon Tileset_479
  - Dungeon Tileset_441
  - Dungeon Tileset_455
  - Dungeon Tileset_426
  - Dungeon Tileset_430
  - Dungeon Tileset_478
  - Dungeon Tileset_446
  - Dungeon Tileset_454
  - Dungeon Tileset_427
  - Dungeon Tileset_437
  - Dungeon Tileset_447
  - Dungeon Tileset_457
  - Dungeon Tileset_436
  - Dungeon Tileset_444
  - Dungeon Tileset_456
  - Dungeon Tileset_435
  - Dungeon Tileset_445
  - Dungeon Tileset_451
  - Dungeon Tileset_86
  - Dungeon Tileset_434
  - Dungeon Tileset_450
  - Dungeon Tileset_87
  - Dungeon Tileset_453
  - Dungeon Tileset_84
  - Dungeon Tileset_28
  - Dungeon Tileset_452
  - Dungeon Tileset_85
  - Dungeon Tileset_99
  - Dungeon Tileset_29
  - Dungeon Tileset_82
  - Dungeon Tileset_98
  - Dungeon Tileset_83
  - Dungeon Tileset_80
  - Dungeon Tileset_48
  - Dungeon Tileset_81
  - Dungeon Tileset_39
  - Dungeon Tileset_49
  - Dungeon Tileset_38
  - Dungeon Tileset_20
  - Dungeon Tileset_91
  - Dungeon Tileset_21
  - Dungeon Tileset_59
  - Dungeon Tileset_90
  - Dungeon Tileset_22
  - Dungeon Tileset_42
  - Dungeon Tileset_58
  - Dungeon Tileset_93
  - Dungeon Tileset_23
  - Dungeon Tileset_33
  - Dungeon Tileset_43
  - Dungeon Tileset_88
  - Dungeon Tileset_92
  - Dungeon Tileset_24
  - Dungeon Tileset_32
  - Dungeon Tileset_40
  - Dungeon Tileset_89
  - Dungeon Tileset_95
  - Dungeon Tileset_25
  - Dungeon Tileset_31
  - Dungeon Tileset_41
  - Dungeon Tileset_55
  - Dungeon Tileset_653
  - Dungeon Tileset_94
  - Dungeon Tileset_26
  - Dungeon Tileset_30
  - Dungeon Tileset_46
  - Dungeon Tileset_54
  - Dungeon Tileset_652
  - Dungeon Tileset_97
  - Dungeon Tileset_27
  - Dungeon Tileset_37
  - Dungeon Tileset_47
  - Dungeon Tileset_57
  - Dungeon Tileset_651
  - Dungeon Tileset_96
  - Dungeon Tileset_36
  - Dungeon Tileset_44
  - Dungeon Tileset_56
  - Dungeon Tileset_650
  - Dungeon Tileset_35
  - Dungeon Tileset_45
  - Dungeon Tileset_51
  - Dungeon Tileset_657
  - Dungeon Tileset_34
  - Dungeon Tileset_50
  - Dungeon Tileset_656
  - Dungeon Tileset_53
  - Dungeon Tileset_655
  - Dungeon Tileset_52
  - Dungeon Tileset_654
  - Dungeon Tileset_658
  m_RenderDataMap: {}
  m_Tag: Dungeon Atlas
  m_IsVariant: 0
